{
    "server_real": {
        "addr": "52.193.246.146",
        "port": 22,
        "user": "ubuntu",
        "keyPath": "key/tracking_test_key.pem"
    },
    "server_test": {
        "addr": "172.25.105.255",
        "port": 22,
        "user": "adrian",
        "pass": "1234"
    },
    "local": { 
        "name": "Main camera",
        "addr": "0.0.0.0",
        "port": 5002
    }
}